<?xml version="1.0" encoding="utf-8"?>
<!-- Generator: Adobe Illustrator 16.0.3, SVG Export Plug-In . SVG Version: 6.00 Build 0)  -->
<!DOCTYPE svg PUBLIC "-//W3C//DTD SVG 1.1//EN" "http://www.w3.org/Graphics/SVG/1.1/DTD/svg11.dtd">
<svg version="1.1" id="Layer_1" xmlns="http://www.w3.org/2000/svg" xmlns:xlink="http://www.w3.org/1999/xlink" x="0px" y="0px"
	 width="74.6px" height="73.8px" viewBox="0 0 74.6 73.8" style="enable-background:new 0 0 74.6 73.8;" xml:space="preserve">
<g id="Download">
	<g>
		<path d="M49.6,4.9H2.5v56.7h35.1l-5.7-6.2H8.7V11.1h7.8V33h28.1V11.1h2.5l5.8,5.7V26h6.2V14.2L49.6,4.9z M38.4,26.8h-6.2V11.1h6.2
			V26.8z"/>
		<polygon points="59.5,47.7 59.5,31.4 46,31.4 46,47.7 33.3,47.7 52.7,68.9 72.1,47.7 		"/>
	</g>
</g>
</svg>
