<?xml version="1.0" encoding="utf-8"?>
<!-- Generator: Adobe Illustrator 16.0.3, SVG Export Plug-In . SVG Version: 6.00 Build 0)  -->
<!DOCTYPE svg PUBLIC "-//W3C//DTD SVG 1.1//EN" "http://www.w3.org/Graphics/SVG/1.1/DTD/svg11.dtd">
<svg version="1.1" id="Layer_1" xmlns="http://www.w3.org/2000/svg" xmlns:xlink="http://www.w3.org/1999/xlink" x="0px" y="0px"
	 width="74.6px" height="73.8px" viewBox="0 0 74.6 73.8" style="enable-background:new 0 0 74.6 73.8;" xml:space="preserve">
<style type="text/css">
<![CDATA[
	.st0{fill:#3500C9;}
]]>
</style>
<path class="st0" d="M37.2,3C18.3,3,3,18.3,3,37.2c0,18.9,15.3,34.2,34.2,34.2s34.2-15.3,34.2-34.2C71.4,18.3,56.1,3,37.2,3z
	 M44.8,31.4l-0.4,5.1h-5.2v17.9h-6.7V36.6H29v-5.1h3.6v-3.4c0-1.5,0-3.8,1.1-5.3c1.2-1.5,2.7-2.6,5.5-2.6c4.4,0,6.3,0.6,6.3,0.6
	L44.6,26c0,0-1.5-0.4-2.8-0.5c-1.4,0-2.6,0.5-2.6,1.9v4H44.8z"/>
</svg>
